[ {
  "conditions" : {
    "Angst" : [ "sehr hoch" ]
  },
  "intervention" : "Dranbleiben"
}, {
  "conditions" : {
    "Angst" : [ "hoch" ]
  },
  "intervention" : "Aushalten induzieren und verstärken"
}, {
  "conditions" : {
    "Angst" : [ "niedrig" ]
  },
  "intervention" : "-",
  "newRules" : "Interventionsregeln"
} ]