[
	{
		"conditions": {
			"Erstarren": [
				"hoch"
			]
		},
		"intervention": "Erstarren Bewegung"
	},
	{
		"conditions": {
			"Erstarren": [
				"sehr hoch"
			]
		},
		"intervention": "Schwierigkeit reduzieren"
	},
	{
		"conditions": {
			"Erstarren": [
				"nein"
			],
			"Angst": [
				"hoch"
			]
		},
		"intervention": "Aushalten induzieren und verstärken"
	},
	{
		"conditions": {
			"Erstarren": [
				"nein"
			],
			"Angst": [
				"sehr hoch"
			]
		},
		"intervention": "Dranbleiben"
	},
	{
		"conditions": {
			"Erstarren": [
				"nein"
			],
			"Angst": [
				"niedrig"
			],
			"Aufmerksamkeit": [
				"nein"
			]
		},
		"intervention": "Aufmerksamkeit induzieren"
	},
	{
		"conditions": {
			"Erstarren": [
				"nein"
			],
			"Angst": [
				"niedrig"
			],
			"Aufmerksamkeit": [
				"ja"
			],
			"Vermeidung": [
				"ja"
			]
		},
		"intervention": "Annäherung induzieren"
	},
	{
		"conditions": {
			"Erstarren": [
				"nein"
			],
			"Angst": [
				"niedrig"
			],
			"Aufmerksamkeit": [
				"ja"
			],
			"Vermeidung": [
				"nein"
			],
			"Annäherung": [
				"ja"
			]
		},
		"intervention": "Annäherung verstärken"
	},
	{
		"conditions": {
			"Erstarren": [
				"nein"
			],
			"Angst": [
				"niedrig"
			],
			"Aufmerksamkeit": [
				"ja"
			],
			"Vermeidung": [
				"nein"
			],
			"Annäherung": [
				"nein"
			]
		},
		"intervention": "-"
	}
]
